SysReview_phytoplankton-water-level-change
…
summary_tbl_posthoc <- summary_tbl |> 
  mutate(significant = ifelse(p_adj < 0.05, "Significant", NA))

summary_tbl_posthoc

# A tibble: 48 × 9
   water_direction_final  response_final     observed expected std.resid   p_raw
   <fct>                  <fct>                 <int>    <dbl>     <dbl>   <dbl>
 1 cyano_response_wl_down "Decrease"                3   11.8      -4.74  2.14e-6
 2 cyano_response_wl_up   "Decrease"               17    8.24      4.74  2.14e-6
 3 cyano_response_wl_down "Increase"               25   15.9       4.59  4.40e-6
 4 cyano_response_wl_up   "Increase"                2   11.1      -4.59  4.40e-6
 5 cyano_response_wl_down "Notsignificant"         11   11.8      -0.414 6.79e-1
 6 cyano_response_wl_up   "Notsignificant"          9    8.24      0.414 6.79e-1
 7 cyano_response_wl_down "Shiftto\nCyanoba…        1    0.588     0.843 3.99e-1
 8 cyano_response_wl_up   "Shiftto\nCyanoba…        0    0.412    -0.843 3.99e-1
 9 wl_down                "Decrease"                3    4.55     -2.55  1.07e-2
10 wl_up                  "Decrease"                2    0.455     2.55  1.07e-2
# ℹ 38 more rows
# ℹ 3 more variables: p_adj <dbl>, model <chr>, significant <chr>
…
